<?xml version="1.0" encoding="UTF-8" standalone="no"?>
<!-- Created with Inkscape (http://www.inkscape.org/) -->

<svg
   width="210mm"
   height="297mm"
   viewBox="0 0 210 297"
   version="1.1"
   id="svg149"
   inkscape:version="1.1.2 (0a00cf5339, 2022-02-04)"
   sodipodi:docname="avatar.svg"
   xmlns:inkscape="http://www.inkscape.org/namespaces/inkscape"
   xmlns:sodipodi="http://sodipodi.sourceforge.net/DTD/sodipodi-0.dtd"
   xmlns="http://www.w3.org/2000/svg"
   xmlns:svg="http://www.w3.org/2000/svg">
  <sodipodi:namedview
     id="namedview151"
     pagecolor="#ffffff"
     bordercolor="#666666"
     borderopacity="1.0"
     inkscape:pageshadow="2"
     inkscape:pageopacity="0.0"
     inkscape:pagecheckerboard="0"
     inkscape:document-units="mm"
     showgrid="false"
     inkscape:zoom="0.49264169"
     inkscape:cx="-3.0448093"
     inkscape:cy="560.24491"
     inkscape:window-width="1366"
     inkscape:window-height="713"
     inkscape:window-x="0"
     inkscape:window-y="55"
     inkscape:window-maximized="1"
     inkscape:current-layer="layer2" />
  <defs
     id="defs146" />
  <g
     inkscape:groupmode="layer"
     id="layer2"
     inkscape:label="Layer 2"
     style="display:inline">
    <ellipse
       style="fill:#b3b3b3;fill-opacity:1;fill-rule:evenodd;stroke-width:0.264583"
       id="path189"
       cx="107.95118"
       cy="158.97287"
       rx="95.420998"
       ry="128.89693" />
    <ellipse
       style="fill:#ff0000;fill-rule:evenodd;stroke-width:0.264583"
       id="path195"
       cx="119.0776"
       cy="138.95026"
       rx="9.8193226"
       ry="0.92312759" />
  </g>
  <g
     inkscape:label="Layer 1"
     inkscape:groupmode="layer"
     id="layer1">
    <path
       fill="currentColor"
       d="m 90.224092,96.60027 c -6.35,-17.197916 -12.964583,-23.812499 -20.902083,-23.812499 -5.291667,0 -10.054167,1.322916 -16.139583,4.233333 L 48.155342,62.998187 c 7.9375,-4.497917 16.66875,-7.408333 25.135417,-7.408333 16.139583,0 26.987501,10.31875 35.718761,33.602083 L 170.39285,253.76277 H 147.63868 L 110.33243,147.92944 67.469925,253.76277 H 45.509509 l 54.768751,-130.175 z"
       id="path49"
       style="stroke-width:0.264583" />
  </g>
</svg>
